{
  "log" : {
    "version" : "1.2",
    "pages" : [ ],
    "entries" : [ {
      "startedDateTime" : "2019-09-18T16:38:28.783Z",
      "request" : {
        "method" : "GET",
        "url" : " https://blkgw.qa.objectcomputing-opes-one.com/bl/communities",
        "httpVersion" : "",
        "cookies" : [ ],
        "headers" : [ ],
        "queryString" : [ ],
        "headersSize" : 0,
        "bodySize" : 0,
        "comment" : ""
      },
      "response" : {
        "status" : 200,
        "statusText" : "",
        "httpVersion" : "",
        "cookies" : [ ],
        "headers" : [ {
          "name" : null,
          "value" : "HTTP/1.1 200 OK"
        }, {
          "name" : "Strict-Transport-Security",
          "value" : "max-age=15724800; includeSubDomains"
        }, {
          "name" : "Server",
          "value" : "nginx/1.15.9"
        }, {
          "name" : "ETag",
          "value" : "W/\"28aa-0BcaoTjrp4xQdiOkZlDAhZCS+eY\""
        }, {
          "name" : "Connection",
          "value" : "keep-alive"
        }, {
          "name" : "Vary",
          "value" : "Accept-Encoding"
        }, {
          "name" : "Content-Length",
          "value" : "10410"
        }, {
          "name" : "Date",
          "value" : "Wed, 18 Sep 2019 16:38:31 GMT"
        }, {
          "name" : "X-Powered-By",
          "value" : "Express"
        }, {
          "name" : "Content-Type",
          "value" : "application/json; charset=utf-8"
        } ],
        "content" : {
          "size" : 10410,
          "mimeType" : "application/json; charset=utf-8",
          "text" : "{\"communities\":[{\"title\":\"The cntstr111111 CN\",\"summary\":\"A testing OPES Community Node\",\"website\":\"https://cn-service-all.qa.objectcomputing-opes-one.com/cn/cntstr111111\",\"producer_name\":\"cntstr111111\",\"org\":{\"org_name\":null,\"code_of_conduct\":null,\"ownership_disclosure\":null,\"pledge_to_opes_ecosystem\":null,\"email\":\"cntstr111111@example.org\",\"branding\":{\"logo_256\":\"https://cn-service-all.qa.objectcomputing-opes-one.com/static/icon-11.png\",\"logo_1024\":null,\"logo_svg\":null},\"location\":{\"name\":null,\"country\":\"US\",\"latitude\":null,\"longitude\":null},\"social\":{\"steemit\":null,\"twitter\":null,\"youtube\":null,\"github\":null,\"reddit\":null,\"keybase\":null,\"telegram\":null,\"wechat\":null,\"linkedin\":null,\"instagram\":null,\"snapchat\":null,\"facebook\":null}},\"nodes\":[],\"dateRegistered\":\"2019-08-15T00:00:00.000Z\",\"name\":\"cntstr111111\",\"url\":\"https://cn-service-all.qa.objectcomputing-opes-one.com/cn/cntstr111111/info\",\"referrer_pn\":\"pntstr111111\",\"referrer_cn\":\"opesonecn111\",\"respresentative_an\":\"cntstr111111\",\"num_referred\":2},{\"title\":\"The cntstr111112 CN\",\"summary\":\"A testing OPES Community Node\",\"website\":\"https://cn-service-all.qa.objectcomputing-opes-one.com/cn/cntstr111112\",\"producer_name\":\"cntstr111112\",\"org\":{\"org_name\":null,\"code_of_conduct\":null,\"ownership_disclosure\":null,\"pledge_to_opes_ecosystem\":null,\"email\":\"cntstr111112@example.org\",\"branding\":{\"logo_256\":\"https://cn-service-all.qa.objectcomputing-opes-one.com/static/icon-12.png\",\"logo_1024\":null,\"logo_svg\":null},\"location\":{\"name\":null,\"country\":\"CA\",\"latitude\":null,\"longitude\":null},\"social\":{\"steemit\":null,\"twitter\":null,\"youtube\":null,\"github\":null,\"reddit\":null,\"keybase\":null,\"telegram\":null,\"wechat\":null,\"linkedin\":null,\"instagram\":null,\"snapchat\":null,\"facebook\":null}},\"nodes\":[],\"dateRegistered\":\"2019-08-15T00:00:00.000Z\",\"name\":\"cntstr111112\",\"url\":\"https://cn-service-all.qa.objectcomputing-opes-one.com/cn/cntstr111112/info\",\"referrer_pn\":\"pntstr111112\",\"referrer_cn\":\"opesonecn111\",\"respresentative_an\":\"cntstr111112\",\"num_referred\":0},{\"title\":\"The cntstr111113 CN\",\"summary\":\"A testing OPES Community Node\",\"website\":\"https://cn-service-all.qa.objectcomputing-opes-one.com/cn/cntstr111113\",\"producer_name\":\"cntstr111113\",\"org\":{\"org_name\":null,\"code_of_conduct\":null,\"ownership_disclosure\":null,\"pledge_to_opes_ecosystem\":null,\"email\":\"cntstr111113@example.org\",\"branding\":{\"logo_256\":\"https://cn-service-all.qa.objectcomputing-opes-one.com/static/icon-13.png\",\"logo_1024\":null,\"logo_svg\":null},\"location\":{\"name\":null,\"country\":\"GR\",\"latitude\":null,\"longitude\":null},\"social\":{\"steemit\":null,\"twitter\":null,\"youtube\":null,\"github\":null,\"reddit\":null,\"keybase\":null,\"telegram\":null,\"wechat\":null,\"linkedin\":null,\"instagram\":null,\"snapchat\":null,\"facebook\":null}},\"nodes\":[],\"dateRegistered\":\"2019-08-15T00:00:00.000Z\",\"name\":\"cntstr111113\",\"url\":\"https://cn-service-all.qa.objectcomputing-opes-one.com/cn/cntstr111113/info\",\"referrer_pn\":\"pntstr111113\",\"referrer_cn\":\"opesonecn111\",\"respresentative_an\":\"cntstr111113\",\"num_referred\":0},{\"title\":\"The cntstr111114 CN\",\"summary\":\"A testing OPES Community Node\",\"website\":\"https://cn-service-all.qa.objectcomputing-opes-one.com/cn/cntstr111114\",\"producer_name\":\"cntstr111114\",\"org\":{\"org_name\":null,\"code_of_conduct\":null,\"ownership_disclosure\":null,\"pledge_to_opes_ecosystem\":null,\"email\":\"cntstr111114@example.org\",\"branding\":{\"logo_256\":\"https://cn-service-all.qa.objectcomputing-opes-one.com/static/icon-14.png\",\"logo_1024\":null,\"logo_svg\":null},\"location\":{\"name\":null,\"country\":\"ES\",\"latitude\":null,\"longitude\":null},\"social\":{\"steemit\":null,\"twitter\":null,\"youtube\":null,\"github\":null,\"reddit\":null,\"keybase\":null,\"telegram\":null,\"wechat\":null,\"linkedin\":null,\"instagram\":null,\"snapchat\":null,\"facebook\":null}},\"nodes\":[],\"dateRegistered\":\"2019-08-15T00:00:00.000Z\",\"name\":\"cntstr111114\",\"url\":\"https://cn-service-all.qa.objectcomputing-opes-one.com/cn/cntstr111114/info\",\"referrer_pn\":\"pntstr111114\",\"referrer_cn\":\"opesonecn111\",\"respresentative_an\":\"cntstr111114\",\"num_referred\":0},{\"title\":\"The cntstr111115 CN\",\"summary\":\"A testing OPES Community Node\",\"website\":\"https://cn-service-all.qa.objectcomputing-opes-one.com/cn/cntstr111115\",\"producer_name\":\"cntstr111115\",\"org\":{\"org_name\":null,\"code_of_conduct\":null,\"ownership_disclosure\":null,\"pledge_to_opes_ecosystem\":null,\"email\":\"cntstr111115@example.org\",\"branding\":{\"logo_256\":\"https://cn-service-all.qa.objectcomputing-opes-one.com/static/icon-15.png\",\"logo_1024\":null,\"logo_svg\":null},\"location\":{\"name\":null,\"country\":\"GB\",\"latitude\":null,\"longitude\":null},\"social\":{\"steemit\":null,\"twitter\":null,\"youtube\":null,\"github\":null,\"reddit\":null,\"keybase\":null,\"telegram\":null,\"wechat\":null,\"linkedin\":null,\"instagram\":null,\"snapchat\":null,\"facebook\":null}},\"nodes\":[],\"dateRegistered\":\"2019-08-15T00:00:00.000Z\",\"name\":\"cntstr111115\",\"url\":\"https://cn-service-all.qa.objectcomputing-opes-one.com/cn/cntstr111115/info\",\"referrer_pn\":\"pntstr111115\",\"referrer_cn\":\"opesonecn111\",\"respresentative_an\":\"cntstr111115\",\"num_referred\":0},{\"title\":\"The cntstr111121 CN\",\"summary\":\"A testing OPES Community Node\",\"website\":\"https://cn-service-all.qa.objectcomputing-opes-one.com/cn/cntstr111121\",\"producer_name\":\"cntstr111121\",\"org\":{\"org_name\":null,\"code_of_conduct\":null,\"ownership_disclosure\":null,\"pledge_to_opes_ecosystem\":null,\"email\":\"cntstr111121@example.org\",\"branding\":{\"logo_256\":\"https://cn-service-all.qa.objectcomputing-opes-one.com/static/icon-21.png\",\"logo_1024\":null,\"logo_svg\":null},\"location\":{\"name\":null,\"country\":\"US\",\"latitude\":null,\"longitude\":null},\"social\":{\"steemit\":null,\"twitter\":null,\"youtube\":null,\"github\":null,\"reddit\":null,\"keybase\":null,\"telegram\":null,\"wechat\":null,\"linkedin\":null,\"instagram\":null,\"snapchat\":null,\"facebook\":null}},\"nodes\":[],\"dateRegistered\":\"2019-08-15T00:00:00.000Z\",\"name\":\"cntstr111121\",\"url\":\"https://cn-service-all.qa.objectcomputing-opes-one.com/cn/cntstr111121/info\",\"referrer_pn\":\"pntstr111121\",\"referrer_cn\":\"opesonecn111\",\"respresentative_an\":\"cntstr111121\",\"num_referred\":0},{\"title\":\"The cntstr111122 CN\",\"summary\":\"A testing OPES Community Node\",\"website\":\"https://cn-service-all.qa.objectcomputing-opes-one.com/cn/cntstr111122\",\"producer_name\":\"cntstr111122\",\"org\":{\"org_name\":null,\"code_of_conduct\":null,\"ownership_disclosure\":null,\"pledge_to_opes_ecosystem\":null,\"email\":\"cntstr111122@example.org\",\"branding\":{\"logo_256\":\"https://cn-service-all.qa.objectcomputing-opes-one.com/static/icon-22.png\",\"logo_1024\":null,\"logo_svg\":null},\"location\":{\"name\":null,\"country\":\"CA\",\"latitude\":null,\"longitude\":null},\"social\":{\"steemit\":null,\"twitter\":null,\"youtube\":null,\"github\":null,\"reddit\":null,\"keybase\":null,\"telegram\":null,\"wechat\":null,\"linkedin\":null,\"instagram\":null,\"snapchat\":null,\"facebook\":null}},\"nodes\":[],\"dateRegistered\":\"2019-08-15T00:00:00.000Z\",\"name\":\"cntstr111122\",\"url\":\"https://cn-service-all.qa.objectcomputing-opes-one.com/cn/cntstr111122/info\",\"referrer_pn\":\"pntstr111122\",\"referrer_cn\":\"opesonecn111\",\"respresentative_an\":\"cntstr111122\",\"num_referred\":0},{\"title\":\"The cntstr111123 CN\",\"summary\":\"A testing OPES Community Node\",\"website\":\"https://cn-service-all.qa.objectcomputing-opes-one.com/cn/cntstr111123\",\"producer_name\":\"cntstr111123\",\"org\":{\"org_name\":null,\"code_of_conduct\":null,\"ownership_disclosure\":null,\"pledge_to_opes_ecosystem\":null,\"email\":\"cntstr111123@example.org\",\"branding\":{\"logo_256\":\"https://cn-service-all.qa.objectcomputing-opes-one.com/static/icon-23.png\",\"logo_1024\":null,\"logo_svg\":null},\"location\":{\"name\":null,\"country\":\"GR\",\"latitude\":null,\"longitude\":null},\"social\":{\"steemit\":null,\"twitter\":null,\"youtube\":null,\"github\":null,\"reddit\":null,\"keybase\":null,\"telegram\":null,\"wechat\":null,\"linkedin\":null,\"instagram\":null,\"snapchat\":null,\"facebook\":null}},\"nodes\":[],\"dateRegistered\":\"2019-08-15T00:00:00.000Z\",\"name\":\"cntstr111123\",\"url\":\"https://cn-service-all.qa.objectcomputing-opes-one.com/cn/cntstr111123/info\",\"referrer_pn\":\"pntstr111123\",\"referrer_cn\":\"opesonecn111\",\"respresentative_an\":\"cntstr111123\",\"num_referred\":0},{\"title\":\"The cntstr111124 CN\",\"summary\":\"A testing OPES Community Node\",\"website\":\"https://cn-service-all.qa.objectcomputing-opes-one.com/cn/cntstr111124\",\"producer_name\":\"cntstr111124\",\"org\":{\"org_name\":null,\"code_of_conduct\":null,\"ownership_disclosure\":null,\"pledge_to_opes_ecosystem\":null,\"email\":\"cntstr111124@example.org\",\"branding\":{\"logo_256\":\"https://cn-service-all.qa.objectcomputing-opes-one.com/static/icon-24.png\",\"logo_1024\":null,\"logo_svg\":null},\"location\":{\"name\":null,\"country\":\"ES\",\"latitude\":null,\"longitude\":null},\"social\":{\"steemit\":null,\"twitter\":null,\"youtube\":null,\"github\":null,\"reddit\":null,\"keybase\":null,\"telegram\":null,\"wechat\":null,\"linkedin\":null,\"instagram\":null,\"snapchat\":null,\"facebook\":null}},\"nodes\":[],\"dateRegistered\":\"2019-08-15T00:00:00.000Z\",\"name\":\"cntstr111124\",\"url\":\"https://cn-service-all.qa.objectcomputing-opes-one.com/cn/cntstr111124/info\",\"referrer_pn\":\"pntstr111124\",\"referrer_cn\":\"opesonecn111\",\"respresentative_an\":\"cntstr111124\",\"num_referred\":0},{\"title\":\"The cntstr111125 CN\",\"summary\":\"A testing OPES Community Node\",\"website\":\"https://cn-service-all.qa.objectcomputing-opes-one.com/cn/cntstr111125\",\"producer_name\":\"cntstr111125\",\"org\":{\"org_name\":null,\"code_of_conduct\":null,\"ownership_disclosure\":null,\"pledge_to_opes_ecosystem\":null,\"email\":\"cntstr111125@example.org\",\"branding\":{\"logo_256\":\"https://cn-service-all.qa.objectcomputing-opes-one.com/static/icon-25.png\",\"logo_1024\":null,\"logo_svg\":null},\"location\":{\"name\":null,\"country\":\"GB\",\"latitude\":null,\"longitude\":null},\"social\":{\"steemit\":null,\"twitter\":null,\"youtube\":null,\"github\":null,\"reddit\":null,\"keybase\":null,\"telegram\":null,\"wechat\":null,\"linkedin\":null,\"instagram\":null,\"snapchat\":null,\"facebook\":null}},\"nodes\":[],\"dateRegistered\":\"2019-08-15T00:00:00.000Z\",\"name\":\"cntstr111125\",\"url\":\"https://cn-service-all.qa.objectcomputing-opes-one.com/cn/cntstr111125/info\",\"referrer_pn\":\"pntstr111125\",\"referrer_cn\":\"opesonecn111\",\"respresentative_an\":\"cntstr111125\",\"num_referred\":0}],\"meta\":{\"current_page\":0,\"last_page\":50,\"from\":0,\"to\":9,\"per_page\":10,\"total\":510,\"first\":\"blkgw.qa.objectcomputing-opes-one.com/bl/communities?page=0\",\"last\":\"blkgw.qa.objectcomputing-opes-one.com/bl/communities?page=50\",\"prev\":\"blkgw.qa.objectcomputing-opes-one.com/bl/communities?page=0\",\"next\":\"blkgw.qa.objectcomputing-opes-one.com/bl/communities?page=1\",\"more\":true}}",
          "comment" : ""
        },
        "redirectURL" : "",
        "headersSize" : 271,
        "bodySize" : 10410,
        "comment" : ""
      },
      "cache" : { },
      "timings" : {
        "comment" : "",
        "ssl" : -1,
        "connect" : 405,
        "wait" : 0,
        "blocked" : -1,
        "dns" : -1,
        "receive" : 0,
        "send" : 0
      },
      "comment" : "",
      "_katalonRequestInformation" : {
        "name" : "5",
        "testObjectId" : "Object Repository/API Gateway Services/API_Gateway_Service_Community",
        "harId" : "065d3692-6924-429c-8156-bdc7cda5bebd",
        "reportFolder" : null
      },
      "time" : 405
    } ],
    "comment" : ""
  }
}